^C:\USERS\STUDENT\DOCUMENTS\SPACEWAR\WK3-GRAPHICS\GRAPHICS.CPP|C:\USERS\STUDENT\DOCUMENTS\SPACEWAR\WK3-GRAPHICS\WINMAIN.CPP
C:\USERS\STUDENT\DOCUMENTS\SPACEWAR\WK3-GRAPHICS\DEBUG\GRAPHICS.OBJ
C:\USERS\STUDENT\DOCUMENTS\SPACEWAR\WK3-GRAPHICS\DEBUG\WINMAIN.OBJ
^C:\USERS\STUDENT\DOCUMENTS\SPACEWAR\WK3-GRAPHICS\GRAPHICS.CPP
C:\USERS\STUDENT\DOCUMENTS\SPACEWAR\WK3-GRAPHICS\DEBUG\VC100.PDB
^C:\USERS\STUDENT\DOCUMENTS\SPACEWAR\WK3-GRAPHICS\WINMAIN.CPP
C:\USERS\STUDENT\DOCUMENTS\SPACEWAR\WK3-GRAPHICS\DEBUG\VC100.PDB
^C:\USERS\STUDENT\DOCUMENTS\SPACEWAR\WK3-GRAPHICS\GAME.CPP|C:\USERS\STUDENT\DOCUMENTS\SPACEWAR\WK3-GRAPHICS\INPUT.CPP|C:\USERS\STUDENT\DOCUMENTS\SPACEWAR\WK3-GRAPHICS\WINMAIN.CPP
C:\USERS\STUDENT\DOCUMENTS\SPACEWAR\WK3-GRAPHICS\DEBUG\GAME.OBJ
C:\USERS\STUDENT\DOCUMENTS\SPACEWAR\WK3-GRAPHICS\DEBUG\WINMAIN.OBJ
^C:\USERS\STUDENT\DOCUMENTS\SPACEWAR\WK3-GRAPHICS\GAME.CPP
C:\USERS\STUDENT\DOCUMENTS\SPACEWAR\WK3-GRAPHICS\DEBUG\VC100.PDB
^C:\USERS\STUDENT\DOCUMENTS\SPACEWAR\WK3-GRAPHICS\INPUT.CPP
C:\USERS\STUDENT\DOCUMENTS\SPACEWAR\WK3-GRAPHICS\DEBUG\VC100.PDB
